words = np.load("sentence_words_dok.npy").item()
def createnn():
    #rnn = Network.load("rotten_validation/0_nn.npy")
    #rnn.reg_beta = 0
    #rnn.reg_beta_r = 0
    #rnn.reg_beta_b = 0
    #rnn.lrate = 0.0001
    #rnn.clip_gradient = 100
    #return rnn
    rnn = Network(
            input_size=len(words),
            lrate=0.001,
            drate=0.99,
            cost=log_likelihood,
            cost_deriv=log_likelihood_deriv_for_softmax,#log_likelihood_deriv,
            cutoff=4000,
            #reg_beta=0,#.000001,
            #reg_beta_r=0,#.000001,
            #reg_beta_b=0.0001,
            #reg=l2norm,
            #reg_deriv=l2norm_deriv,
            clip_gradient=100,
            onehot_input=True,
            #decay_frequency=5000,
            #decay_rate=0.05,
            dropout=0.5,
            )
    rnn.add_layer(Layer(
        size=200,
        #activation=sigmoid,
        #activation_deriv=sigmoid_deriv
        #weight_factor=0.75,
        ))
    rnn.add_layer(Layer(
        size=200,
        weight_factor=1.1,
        #activation=identity,
        #activation_deriv=identity_deriv
        ))
split = np.load("split.npy")
print "num 4",(split == 4).sum(), "num 1", (split == 1).sum()
#split[split == 4] = 1
print "num 1 after",(split == 1).sum()
kFoldCross(createnn,
    "sentence_inputs_dok.npy",
    "sentence_outputs_dok.npy",
    every,
    folds=10,
    iterations=100000,
    every=50,
    batch=20,
    super_iterations=1,
    save_in="rotten_validation"
    ,kf=[(split==1,split==3,split==2)],
    #flip=True,
    )
                                                                                                                                                                                                                            208,5         Bot
         Training: 100.0 %
         Validation: 81.4220183486 %
         Final: 83.635365184 %
         Final ensemble: 0.0%
         
